…
Recast using `map`s ... n = sample size = number of observations n\_runs = times of runs

``` r
simulate_n_regressions = function(n_runs = 100, n, beta0 = 2, beta1 = 3) {
  
  rerun(n_runs, sim_regression(n, beta0, beta1)) %>% 
    bind_rows()
  
}
simulate_n_regressions(100, 30, 2, 3)
## # A tibble: 100 x 2
##    beta0_hat beta1_hat
##        <dbl>     <dbl>
##  1      2.53      2.61
##  2      2.56      2.75
##  3      1.84      3.05
##  4      2.00      2.93
##  5      1.72      3.11
##  6      1.85      3.13
##  7      1.93      3.13
##  8      2.35      2.66
##  9      2.10      2.77
## 10      1.93      3.13
## # ... with 90 more rows
simulate_n_regressions(n = 30)
## # A tibble: 100 x 2
##    beta0_hat beta1_hat
##        <dbl>     <dbl>
##  1      2.10      2.96
##  2      2.18      2.97
##  3      2.09      2.85
##  4      2.23      2.86
##  5      1.77      3.06
##  6      2.42      2.73
##  7      1.42      3.42
##  8      1.86      3.06
##  9      1.59      3.40
## 10      1.78      3.24
## # ... with 90 more rows
simulate_n_regressions(150, 30, 20, -30)
## # A tibble: 150 x 2
##    beta0_hat beta1_hat
##        <dbl>     <dbl>
##  1      19.7     -29.7
##  2      20.0     -30.1
##  3      20.3     -29.9
##  4      20.1     -30.0
##  5      19.6     -29.9
##  6      20.0     -29.8
##  7      19.7     -29.8
##  8      19.8     -30.1
##  9      19.9     -29.7
## 10      20.0     -30.0
## # ... with 140 more rows
```

``` r
map(n_list, ~simulate_n_regressions(n_runs = 100, n = .x, beta0 = 2, beta1 = 3))
## $n_30
## # A tibble: 100 x 2
##    beta0_hat beta1_hat
##        <dbl>     <dbl>
##  1      1.59      3.18
##  2      1.97      2.92
##  3      2.22      2.84
##  4      1.98      2.94
##  5      2.00      3.06
##  6      2.15      3.00
##  7      2.06      2.74
##  8      2.16      2.87
##  9      2.34      2.96
## 10      1.79      3.09
## # ... with 90 more rows
## 
## $n_60
## # A tibble: 100 x 2
##    beta0_hat beta1_hat
##        <dbl>     <dbl>
##  1      1.76      3.27
##  2      1.98      3.05
##  3      1.85      3.19
##  4      2.03      2.90
##  5      1.64      3.15
##  6      2.00      2.95
##  7      1.70      3.10
##  8      1.95      2.99
##  9      2.11      2.97
## 10      2.41      2.78
## # ... with 90 more rows
## 
## $n_120
## # A tibble: 100 x 2
##    beta0_hat beta1_hat
##        <dbl>     <dbl>
##  1      1.94      3.04
##  2      1.93      3.04
##  3      2.01      2.99
##  4      1.93      3.02
##  5      1.90      3.06
##  6      2.03      3.19
##  7      1.83      2.99
##  8      1.83      3.01
##  9      1.96      3.00
## 10      2.12      2.98
## # ... with 90 more rows
## 
## $n_240
## # A tibble: 100 x 2
##    beta0_hat beta1_hat
##        <dbl>     <dbl>
##  1      2.00      2.95
##  2      1.87      3.12
##  3      1.89      3.03
##  4      2.15      2.93
##  5      1.83      3.10
##  6      2.15      2.96
##  7      1.86      3.02
##  8      2.00      2.97
##  9      1.89      3.05
## 10      1.95      3.07
## # ... with 90 more rows
```
…
