…
``` r
url_base = "https://www.amazon.com/product-reviews/B00005JNBQ/ref=cm_cr_arp_d_viewopt_rvwer?ie=UTF8&reviewerType=avp_only_reviews&sortBy=recent&pageNumber="
urls = str_c(url_base, 1:5)

dynamite_reviews = bind_rows(
  read_page_reviews(urls[1]),
  read_page_reviews(urls[2]),
  read_page_reviews(urls[3]),
  read_page_reviews(urls[4]),
  read_page_reviews(urls[5])
)

dynamite_reviews
## # A tibble: 50 x 3
##    title                     stars text                                   
##    <chr>                     <dbl> <chr>                                  
##  1 "Great \"Odd Ball\" movi…     5 The dance scene was worth the time spe…
##  2 Nostalgic Stupidity           4 This movie is dumb. I won't lie and sa…
##  3 Happy                         5 Don't know why I lov this movie but ido
##  4 Go watch THE ROCK or dum…     2 This movie is horrible. How do so many…
##  5 My mom loves it               5 Got this for my mom for mother's day, …
##  6 Nothing Quite Like It.        5 So much fun watching these listless pe…
##  7 Has pretty sweet bow ski…     5 Well, things are getting pretty seriou…
##  8 Great                         5 Great                                  
##  9 Fast delivery                 5 Bought as gift                         
## 10 Lol                           5 Funny                                  
## # ... with 40 more rows
```
…
